<?xml version="1.0" encoding="UTF-8"?>
<svg width="44px" height="44px" viewBox="0 0 44 44" version="1.1" xmlns="http://www.w3.org/2000/svg" xmlns:xlink="http://www.w3.org/1999/xlink">
    <!-- Generator: Sketch 58 (84663) - https://sketch.com -->
    <title>Icon/Chat/Learn-and-Share</title>
    <desc>Created with Sketch.</desc>
    <defs>
        <polygon id="path-1" points="4.00716523e-05 1.51378333 31.4736585 1.51378333 31.4736585 33 4.00716523e-05 33"></polygon>
        <polygon id="path-3" points="1.53904853 0.000939494919 23.8333333 0.000939494919 23.8333333 23.2617 1.53904853 23.2617"></polygon>
    </defs>
    <g id="Page-1" stroke="none" stroke-width="1" fill="none" fill-rule="evenodd">
        <g id="Home-Desktop" transform="translate(-981.000000, -816.000000)">
            <g id="Expertises" transform="translate(0.000000, 671.000000)">
                <g id="Txt" transform="translate(158.000000, 145.000000)">
                    <g id="Learn-and-share" transform="translate(792.000000, 0.000000)">
                        <g id="Group-12" transform="translate(31.000000, 0.000000)">
                            <g id="Icon/Chat/Learn-and-Share">
                                <g id="Group-9">
                                    <g id="Group-3" transform="translate(0.000000, 10.999633)">
                                        <mask id="mask-2" fill="white">
                                            <use xlink:href="#path-1"></use>
                                        </mask>
                                        <g id="Clip-2"></g>
                                        <path d="M27.8065333,16.3087833 C27.8248667,18.0137833 27.4032,19.7371167 26.6332,21.2587833 C24.7448667,25.03545 20.9315333,27.4187833 16.6965333,27.4187833 L15.4223667,27.4187833 C14.1353667,27.4187833 12.9437,26.9182833 11.8253667,26.27845 C11.5742,26.1336167 11.3230333,26.0602833 11.0498667,26.0602833 C10.9032,26.0602833 10.7382,26.0987833 10.5915333,26.1537833 L4.9632,28.0237833 L6.8332,22.3771167 C6.96153333,22.0287833 6.92486667,21.6071167 6.75986667,21.2386167 C5.98986667,19.7371167 5.5682,18.0137833 5.58653333,16.3087833 C5.58653333,12.0737833 7.9332,8.24211667 11.7282,6.33545 C13.2498667,5.56545 14.9548667,5.18045 16.6598667,5.18045 L17.3565333,5.18045 C23.0032,5.47378333 27.4948667,9.96545 27.8065333,15.5387833 L27.8065333,16.3087833 Z M17.5582,1.51378333 L16.6598667,1.51378333 C14.3682,1.51378333 12.0948667,2.04545 10.0782,3.07211667 C5.03653333,5.60211667 1.91986667,10.6621167 1.91986667,16.3087833 C1.90153333,18.2337833 2.30486667,20.19545 3.07486667,22.0471167 L1.47986667,26.8871167 L0.0755333333,31.1111167 C-0.296633333,32.2331167 0.770366667,33.3001167 1.89236667,32.9242833 L6.1182,31.5071167 L10.9215333,29.8937833 C12.7548667,30.6821167 14.6982,31.08545 16.6598667,31.08545 C22.3248667,31.08545 27.3867,27.95045 29.9148667,22.9087833 C30.9598667,20.8187833 31.4915333,18.5271167 31.4732,16.2537833 L31.4732,15.3371167 C31.0533667,7.87545 25.0748667,1.91711667 17.5582,1.51378333 L17.5582,1.51378333 Z" id="Fill-1" fill="#4C4B5E" mask="url(#mask-2)"></path>
                                    </g>
                                    <path d="M35.9993333,25.5431 C35.0625,25.5431 34.2631667,24.8281 34.1751667,23.8766 C34.1715,23.8252667 33.6141667,18.3986 30.2848333,14.8712667 C26.609,10.9754333 21.0925,9.9506 21.0375,9.9396 C20.0401667,9.76176667 19.3783333,8.80843333 19.5561667,7.81293333 C19.7358333,6.8156 20.691,6.14643333 21.6846667,6.3316 C21.9596667,6.37926667 28.4551667,7.58926667 32.9523333,12.3541 C37.1653333,16.8182667 37.8015,23.2679333 37.8271667,23.5411 C37.9188333,24.5494333 37.1781667,25.4404333 36.1698333,25.5339333 C36.113,25.5394333 36.0543333,25.5431 35.9993333,25.5431" id="Fill-4" fill="#4C4B5E"></path>
                                    <g id="Group-8" transform="translate(20.166667, -0.000367)">
                                        <mask id="mask-4" fill="white">
                                            <use xlink:href="#path-3"></use>
                                        </mask>
                                        <g id="Clip-7"></g>
                                        <path d="M21.9985333,23.2617 C21.0635333,23.2617 20.2678667,22.5503667 20.1762,21.6025333 C20.1688667,21.5328667 19.4502,14.5533667 15.0978667,9.99203333 C10.3367,5.0017 3.1207,3.65053333 3.0492,3.6377 C2.0537,3.45803333 1.39003333,2.50653333 1.56786667,1.51103333 C1.7457,0.5137 2.70636667,-0.142633333 3.6927,0.0278666667 C4.0337,0.0883666667 12.1407,1.5807 17.7525333,7.4602 C23.0013667,12.9620333 23.7933667,20.9242 23.8263667,21.2615333 C23.9198667,22.2680333 23.1810333,23.1590333 22.1727,23.2543667 C22.1140333,23.2598667 22.0553667,23.2617 21.9985333,23.2617" id="Fill-6" fill="#4C4B5E" mask="url(#mask-4)"></path>
                                    </g>
                                </g>
                            </g>
                        </g>
                    </g>
                </g>
            </g>
        </g>
    </g>
</svg>