<?xml version="1.0" encoding="UTF-8"?>
<svg width="27px" height="44px" viewBox="0 0 27 44" version="1.1" xmlns="http://www.w3.org/2000/svg" xmlns:xlink="http://www.w3.org/1999/xlink">
    <!-- Generator: Sketch 58 (84663) - https://sketch.com -->
    <title>Icon/Controls/Search</title>
    <desc>Created with Sketch.</desc>
    <g id="Page-1" stroke="none" stroke-width="1" fill="none" fill-rule="evenodd">
        <g id="Home-Desktop" transform="translate(-234.000000, -816.000000)" fill="#4C4B5E">
            <g id="Expertises" transform="translate(0.000000, 671.000000)">
                <g id="Txt" transform="translate(158.000000, 145.000000)">
                    <g id="imagine">
                        <g id="Group-10" transform="translate(67.000000, 0.000000)">
                            <g id="Icon/Miscellaneous/Light-2">
                                <path d="M26.4945083,40.1740167 C27.5083417,40.1740167 28.3278417,40.9935167 28.3278417,42.00735 C28.3278417,43.0211833 27.5083417,43.8406833 26.4945083,43.8406833 L18.6900083,43.8406833 C17.676175,43.8406833 16.856675,43.0211833 16.856675,42.00735 C16.856675,40.9935167 17.676175,40.1740167 18.6900083,40.1740167 L26.4945083,40.1740167 Z M28.4459083,34.9944833 C29.4597417,34.9944833 30.2792417,35.8139833 30.2792417,36.8278167 C30.2792417,37.84165 29.4597417,38.66115 28.4459083,38.66115 L16.7382417,38.66115 C15.7262417,38.66115 14.9049083,37.84165 14.9049083,36.8278167 C14.9049083,35.8139833 15.7262417,34.9944833 16.7382417,34.9944833 L28.4459083,34.9944833 Z M22.591525,8.90266667 C29.345525,8.90266667 34.840025,14.3971667 34.840025,21.1493333 C34.840025,24.2568333 32.7023583,26.7428333 30.814025,28.9355 C30.6343583,29.1463333 30.4546917,29.3553333 30.2786917,29.5606667 L30.2786917,31.5516667 C30.2786917,32.5618333 29.461025,33.3813333 28.4508583,33.385 L16.7743583,33.407 L16.7688583,33.407 C16.2848583,33.407 15.8191917,33.2145 15.474525,32.8716667 C15.1298583,32.527 14.935525,32.0595 14.935525,31.5736667 L14.935525,29.5735 C14.7778583,29.3901667 14.6183583,29.2086667 14.457025,29.0235 C12.5301917,26.8216667 10.3448583,24.3265 10.3448583,21.1493333 C10.3448583,14.3971667 15.837525,8.90266667 22.591525,8.90266667 Z M22.591525,12.5693333 C17.861525,12.5693333 14.011525,16.4193333 14.011525,21.1493333 C14.011525,22.9478333 15.6413583,24.8086667 17.2161917,26.6108333 C17.5443583,26.983 17.867025,27.3533333 18.1731917,27.7181667 C18.450025,28.0481667 18.6021917,28.4643333 18.6021917,28.897 L18.6021917,29.7366667 L26.612025,29.722 L26.612025,28.897 C26.612025,28.4716667 26.7586917,28.0628333 27.0281917,27.7346667 C27.349025,27.3423333 27.6881917,26.9463333 28.0346917,26.5466667 C29.5783583,24.7518333 31.1733583,22.8983333 31.1733583,21.1493333 C31.1733583,16.4193333 27.3233583,12.5693333 22.591525,12.5693333 Z M12.296625,4.20365 L14.8999583,6.80698333 C15.6167917,7.52381667 15.6167917,8.68248333 14.8999583,9.39931667 C14.5424583,9.75681667 14.073125,9.93648333 13.6037917,9.93648333 C13.1344583,9.93648333 12.665125,9.75681667 12.307625,9.39931667 L9.70429167,6.79598333 C8.98745833,6.07915 8.98745833,4.92048333 9.70429167,4.20365 C10.421125,3.48681667 11.5797917,3.48681667 12.296625,4.20365 Z M35.4875583,3.96385 C36.2043917,4.68068333 36.2043917,5.83935 35.4875583,6.55618333 L32.884225,9.15951667 C32.526725,9.51701667 32.0573917,9.69668333 31.5880583,9.69668333 C31.118725,9.69668333 30.6493917,9.51701667 30.2918917,9.15951667 C29.5750583,8.44268333 29.5750583,7.28401667 30.2918917,6.56718333 L32.895225,3.96385 C33.6120583,3.24701667 34.770725,3.24701667 35.4875583,3.96385 Z M22.5968417,0 C23.610675,0 24.430175,0.821333333 24.430175,1.83333333 L24.430175,5.5 C24.430175,6.512 23.610675,7.33333333 22.5968417,7.33333333 C21.5830083,7.33333333 20.7635083,6.512 20.7635083,5.5 L20.7635083,1.83333333 C20.7635083,0.821333333 21.5830083,0 22.5968417,0 Z" id="Combined-Shape"></path>
                            </g>
                        </g>
                    </g>
                </g>
            </g>
        </g>
    </g>
</svg>